EESchema Schematic File Version 4
LIBS:unix_watch-cache
EELAYER 26 0
EELAYER END
$Descr A4 11693 8268
encoding utf-8
Sheet 1 11
Title ""
Date ""
Rev ""
Comp ""
Comment1 ""
Comment2 ""
Comment3 ""
Comment4 ""
$EndDescr
$Comp
L unix_watch:VXO7803-500 U3
U 1 1 5C2C00DE
P 3400 3550
F 0 "U3" H 3400 4017 50  0000 C CNN
F 1 "VXO7803-500" H 3400 3926 50  0000 C CNN
F 2 "unix_watch:CONV_VXO7803-500" H 3400 3550 50  0001 L BNN
F 3 "VXO78-500 Series 24 Vin 3.3 Vout Non-Isolated Open Frame DC Switching Regulator" H 3400 3550 50  0001 L BNN
F 4 "VXO7803-500" H 3400 3550 50  0001 L BNN "Field4"
F 5 "CUI Inc." H 3400 3550 50  0001 L BNN "Field5"
F 6 "SIP-3 CUI" H 3400 3550 50  0001 L BNN "Field6"
F 7 "102-4248-ND" H 3400 3550 50  0001 L BNN "Field7"
F 8 "https://www.digikey.ca/product-detail/en/cui-inc/VXO7803-500/102-4248-ND/7350287?utm_source=snapeda&utm_medium=aggregator&utm_campaign=symbol" H 3400 3550 50  0001 L BNN "Field8"
F 9 "https://www.cui.com/product/power/dc-dc-converters/non-isolated/0.5-a-output-current/vxo78-500-series?utm_source=snapeda.com&utm_medium=referral&utm_campaign=snapedaBOM" H 3400 3550 50  0001 L BNN "Field9"
	1    3400 3550
	1    0    0    -1  
$EndComp
Text GLabel 2700 3250 1    50   Input ~ 0
5V
Text GLabel 4150 3300 1    50   Output ~ 0
3V3
$Comp
L unix_watch-rescue:GND-power-unix_watch-rescue #PWR08
U 1 1 5C2C0570
P 4150 3650
F 0 "#PWR08" H 4150 3400 50  0001 C CNN
F 1 "GND" H 4155 3477 50  0000 C CNN
F 2 "" H 4150 3650 50  0001 C CNN
F 3 "" H 4150 3650 50  0001 C CNN
	1    4150 3650
	1    0    0    -1  
$EndComp
Wire Wire Line
	2700 3450 2700 3250
Wire Wire Line
	4100 3450 4150 3450
Wire Wire Line
	4150 3450 4150 3300
Wire Wire Line
	4100 3550 4150 3550
Wire Wire Line
	4150 3550 4150 3650
$Comp
L unix_watch:10118193-0001LF J1
U 1 1 5C2CAD63
P 1250 3450
F 0 "J1" H 1144 4015 50  0000 C CNN
F 1 "10118193-0001LF" H 1144 3924 50  0000 C CNN
F 2 "unix_watch:FCI_10118193-0001LF" H 1250 3450 50  0001 L BNN
F 3 "None" H 1250 3450 50  0001 L BNN
F 4 "10118193-0001LF" H 1250 3450 50  0001 L BNN "Field4"
F 5 "609-4616-1-ND" H 1250 3450 50  0001 L BNN "Field5"
F 6 "Amphenol ICC" H 1250 3450 50  0001 L BNN "Field6"
F 7 "Conn Micro USB Type B RCP 5 POS 0.65mm Solder RA SMD 5 Terminal 1 Port T/R" H 1250 3450 50  0001 L BNN "Field7"
F 8 "https://www.digikey.ca/product-detail/en/amphenol-icc-fci/10118193-0001LF/609-4616-1-ND/2785380?utm_source=snapeda&utm_medium=aggregator&utm_campaign=symbol" H 1250 3450 50  0001 L BNN "Field8"
	1    1250 3450
	-1   0    0    -1  
$EndComp
Text GLabel 1850 3150 2    50   Output ~ 0
5V
$Comp
L unix_watch-rescue:GND-power-unix_watch-rescue #PWR07
U 1 1 5C2D396C
P 1850 3550
F 0 "#PWR07" H 1850 3300 50  0001 C CNN
F 1 "GND" H 1855 3377 50  0000 C CNN
F 2 "" H 1850 3550 50  0001 C CNN
F 3 "" H 1850 3550 50  0001 C CNN
	1    1850 3550
	1    0    0    -1  
$EndComp
Wire Wire Line
	1650 3150 1850 3150
Wire Wire Line
	1650 3550 1850 3550
$Sheet
S 6050 3750 300  700 
U 5C8D6ACF
F0 "Decade Counter" 50
F1 "decade_counter.sch" 50
F2 "Clock" B T 6200 3750 50 
F3 "Carry" B B 6200 4450 50 
$EndSheet
$Sheet
S 6550 3750 300  700 
U 5C8FA96D
F0 "sheet5C8FA969" 50
F1 "decade_counter.sch" 50
F2 "Clock" B T 6700 3750 50 
F3 "Carry" B B 6700 4450 50 
$EndSheet
$Sheet
S 7050 3750 300  700 
U 5C8FA9C1
F0 "sheet5C8FA9BD" 50
F1 "decade_counter.sch" 50
F2 "Clock" B T 7200 3750 50 
F3 "Carry" B B 7200 4450 50 
$EndSheet
$Sheet
S 7550 3750 300  700 
U 5C8FAA15
F0 "sheet5C8FAA11" 50
F1 "decade_counter.sch" 50
F2 "Clock" B T 7700 3750 50 
F3 "Carry" B B 7700 4450 50 
$EndSheet
$Sheet
S 8050 3750 300  700 
U 5C8FAA69
F0 "sheet5C8FAA65" 50
F1 "decade_counter.sch" 50
F2 "Clock" B T 8200 3750 50 
F3 "Carry" B B 8200 4450 50 
$EndSheet
$Sheet
S 8550 3750 300  700 
U 5C8FAABD
F0 "sheet5C8FAAB9" 50
F1 "decade_counter.sch" 50
F2 "Clock" B T 8700 3750 50 
F3 "Carry" B B 8700 4450 50 
$EndSheet
$Sheet
S 9050 3750 300  700 
U 5C8FAB11
F0 "sheet5C8FAB0D" 50
F1 "decade_counter.sch" 50
F2 "Clock" B T 9200 3750 50 
F3 "Carry" B B 9200 4450 50 
$EndSheet
$Sheet
S 9550 3750 300  700 
U 5C8FAB75
F0 "sheet5C8FAB71" 50
F1 "decade_counter.sch" 50
F2 "Clock" B T 9700 3750 50 
F3 "Carry" B B 9700 4450 50 
$EndSheet
$Sheet
S 10050 3750 300  700 
U 5C8FABC9
F0 "sheet5C8FABC5" 50
F1 "decade_counter.sch" 50
F2 "Clock" B T 10200 3750 50 
F3 "Carry" B B 10200 4450 50 
$EndSheet
$Sheet
S 10550 3750 300  700 
U 5C8FAC31
F0 "sheet5C8FAC2D" 50
F1 "decade_counter.sch" 50
F2 "Clock" B T 10700 3750 50 
F3 "Carry" B B 10700 4450 50 
$EndSheet
Wire Wire Line
	6200 3750 6200 3450
Wire Wire Line
	6200 4450 6200 4600
Wire Wire Line
	6200 4600 6450 4600
Wire Wire Line
	6450 4600 6450 3450
Wire Wire Line
	6450 3450 6700 3450
Wire Wire Line
	6700 3450 6700 3750
Wire Wire Line
	6700 4450 6700 4600
Wire Wire Line
	6700 4600 6950 4600
Wire Wire Line
	6950 4600 6950 3450
Wire Wire Line
	6950 3450 7200 3450
Wire Wire Line
	7200 3450 7200 3750
Wire Wire Line
	7200 4450 7200 4600
Wire Wire Line
	7200 4600 7450 4600
Wire Wire Line
	7450 4600 7450 3450
Wire Wire Line
	7450 3450 7700 3450
Wire Wire Line
	7700 3450 7700 3750
Wire Wire Line
	7700 4450 7700 4600
Wire Wire Line
	7700 4600 7950 4600
Wire Wire Line
	7950 4600 7950 3450
Wire Wire Line
	7950 3450 8200 3450
Wire Wire Line
	8200 3450 8200 3750
Wire Wire Line
	8200 4450 8200 4600
Wire Wire Line
	8200 4600 8450 4600
Wire Wire Line
	8450 4600 8450 3450
Wire Wire Line
	8450 3450 8700 3450
Wire Wire Line
	8700 3450 8700 3750
Wire Wire Line
	8700 4450 8700 4600
Wire Wire Line
	8700 4600 8950 4600
Wire Wire Line
	8950 4600 8950 3450
Wire Wire Line
	8950 3450 9200 3450
Wire Wire Line
	9200 3450 9200 3750
Wire Wire Line
	9200 4450 9200 4600
Wire Wire Line
	9200 4600 9450 4600
Wire Wire Line
	9450 4600 9450 3450
Wire Wire Line
	9450 3450 9700 3450
Wire Wire Line
	9700 3450 9700 3750
Wire Wire Line
	9700 4450 9700 4600
Wire Wire Line
	9700 4600 9950 4600
Wire Wire Line
	9950 4600 9950 3450
Wire Wire Line
	9950 3450 10200 3450
Wire Wire Line
	10200 3450 10200 3750
Wire Wire Line
	10200 4450 10200 4600
Wire Wire Line
	10200 4600 10450 4600
Wire Wire Line
	10450 4600 10450 3450
Wire Wire Line
	10450 3450 10700 3450
Wire Wire Line
	10700 3450 10700 3750
$Comp
L unix_watch:ERA-3AEB1650V C4
U 1 1 5C41143C
P 4300 3450
F 0 "C4" V 4550 3529 60  0000 L CNN
F 1 "ERA-3AEB1650V" H 4550 3175 60  0001 C CNN
F 2 "unix_watch:ERA-3AEB1650V" H 4550 3115 60  0001 C CNN
F 3 "" H 4525 3600 60  0000 C CNN
F 4 "P165DBCT-ND" H 4625 3700 50  0001 C CNN "Digikey Part #"
	1    4300 3450
	0    1    1    0   
$EndComp
$Comp
L unix_watch:ERA-3AEB1650V C5
U 1 1 5C41157E
P 2700 3950
F 0 "C5" H 2950 4082 60  0000 C CNN
F 1 "ERA-3AEB1650V" H 2950 3675 60  0001 C CNN
F 2 "unix_watch:ERA-3AEB1650V" H 2950 3615 60  0001 C CNN
F 3 "" H 2925 4100 60  0000 C CNN
F 4 "P165DBCT-ND" H 3025 4200 50  0001 C CNN "Digikey Part #"
	1    2700 3950
	0    -1   -1   0   
$EndComp
Connection ~ 2700 3450
$Comp
L unix_watch-rescue:GND-power-unix_watch-rescue #PWR010
U 1 1 5C414D6E
P 2700 3950
F 0 "#PWR010" H 2700 3700 50  0001 C CNN
F 1 "GND" H 2705 3777 50  0000 C CNN
F 2 "" H 2700 3950 50  0001 C CNN
F 3 "" H 2700 3950 50  0001 C CNN
	1    2700 3950
	1    0    0    -1  
$EndComp
Wire Wire Line
	4150 3450 4300 3450
Connection ~ 4150 3450
$Comp
L unix_watch-rescue:GND-power-unix_watch-rescue #PWR011
U 1 1 5C4161DB
P 4300 3950
F 0 "#PWR011" H 4300 3700 50  0001 C CNN
F 1 "GND" H 4305 3777 50  0000 C CNN
F 2 "" H 4300 3950 50  0001 C CNN
F 3 "" H 4300 3950 50  0001 C CNN
	1    4300 3950
	1    0    0    -1  
$EndComp
Wire Wire Line
	5750 3450 6200 3450
$Comp
L unix_watch:SIT1630 Y1
U 1 1 5CF9EA58
P 1800 1750
F 0 "Y1" H 1800 2115 50  0000 C CNN
F 1 "SIT1630" H 1800 2024 50  0000 C CNN
F 2 "TO_SOT_Packages_SMD:SOT-23-5" H 1700 2000 50  0001 C CNN
F 3 "" H 1800 1750 50  0001 C CNN
F 4 "1473-31368-1-ND" H 1900 2200 50  0001 C CNN "Digikey Part #"
	1    1800 1750
	1    0    0    -1  
$EndComp
$Comp
L unix_watch:74AHC1G4214 U1
U 1 1 5CF9EB15
P 3300 1750
F 0 "U1" H 3300 2115 50  0000 C CNN
F 1 "74AHC1G4214" H 3300 2024 50  0000 C CNN
F 2 "TO_SOT_Packages_SMD:SOT-353_SC-70-5" H 3200 2000 50  0001 C CNN
F 3 "" H 3300 1750 50  0001 C CNN
F 4 "1727-7630-1-ND" H 3400 2200 50  0001 C CNN "Digikey Part #"
	1    3300 1750
	1    0    0    -1  
$EndComp
$Comp
L unix_watch:74LVC1G80GW,125 U2
U 1 1 5CF9EBA4
P 4750 1750
F 0 "U2" H 4750 2115 50  0000 C CNN
F 1 "74LVC1G80GW,125" H 4750 2024 50  0000 C CNN
F 2 "TO_SOT_Packages_SMD:SOT-353_SC-70-5" H 4650 2000 50  0001 C CNN
F 3 "" H 4750 2100 50  0001 C CNN
F 4 "1727-6081-1-ND" H 4850 2200 50  0001 C CNN "Digikey Part #"
	1    4750 1750
	1    0    0    -1  
$EndComp
Wire Wire Line
	4250 1650 4350 1650
Wire Wire Line
	4350 1750 4150 1750
Wire Wire Line
	4150 1750 4150 1850
Text GLabel 3900 1150 2    50   Input ~ 0
3V3
$Comp
L power:GND #PWR05
U 1 1 5CFA1C03
P 4250 1950
F 0 "#PWR05" H 4250 1700 50  0001 C CNN
F 1 "GND" H 4255 1777 50  0000 C CNN
F 2 "" H 4250 1950 50  0001 C CNN
F 3 "" H 4250 1950 50  0001 C CNN
	1    4250 1950
	1    0    0    -1  
$EndComp
$Comp
L power:GND #PWR04
U 1 1 5CFA1C51
P 2800 1950
F 0 "#PWR04" H 2800 1700 50  0001 C CNN
F 1 "GND" H 2805 1777 50  0000 C CNN
F 2 "" H 2800 1950 50  0001 C CNN
F 3 "" H 2800 1950 50  0001 C CNN
	1    2800 1950
	1    0    0    -1  
$EndComp
Wire Wire Line
	2800 1950 2800 1850
Wire Wire Line
	2800 1850 2900 1850
Text GLabel 2450 1850 2    50   Input ~ 0
3V3
$Comp
L power:GND #PWR03
U 1 1 5CFA407A
P 1250 1950
F 0 "#PWR03" H 1250 1700 50  0001 C CNN
F 1 "GND" H 1255 1777 50  0000 C CNN
F 2 "" H 1250 1950 50  0001 C CNN
F 3 "" H 1250 1950 50  0001 C CNN
	1    1250 1950
	1    0    0    -1  
$EndComp
Wire Wire Line
	1250 1650 1250 1950
Wire Wire Line
	1250 1650 1350 1650
Text Label 2350 1650 0    50   ~ 0
32.768kHz
Text Label 3850 1850 0    50   ~ 0
2Hz
Text GLabel 5850 1850 2    50   Output ~ 0
1Hz
Wire Wire Line
	5750 1850 5850 1850
Connection ~ 5750 1850
$Comp
L Device:C C3
U 1 1 5CFAC408
P 2250 2000
F 0 "C3" H 2365 2046 50  0000 L CNN
F 1 "0.1uF" H 2365 1955 50  0000 L CNN
F 2 "Capacitors_SMD:C_0603" H 2288 1850 50  0001 C CNN
F 3 "~" H 2250 2000 50  0001 C CNN
	1    2250 2000
	1    0    0    -1  
$EndComp
Wire Wire Line
	2450 1850 2250 1850
Wire Wire Line
	2250 1650 2300 1650
$Comp
L power:GND #PWR06
U 1 1 5CFB0940
P 2250 2150
F 0 "#PWR06" H 2250 1900 50  0001 C CNN
F 1 "GND" H 2255 1977 50  0000 C CNN
F 2 "" H 2250 2150 50  0001 C CNN
F 3 "" H 2250 2150 50  0001 C CNN
	1    2250 2150
	1    0    0    -1  
$EndComp
Connection ~ 2250 1850
$Comp
L Device:C C1
U 1 1 5CFB2076
P 3850 1350
F 0 "C1" H 3965 1396 50  0000 L CNN
F 1 "0.1uF" H 3965 1305 50  0000 L CNN
F 2 "Capacitors_SMD:C_0603" H 3888 1200 50  0001 C CNN
F 3 "~" H 3850 1350 50  0001 C CNN
	1    3850 1350
	1    0    0    -1  
$EndComp
$Comp
L power:GND #PWR01
U 1 1 5CFB207D
P 3850 1500
F 0 "#PWR01" H 3850 1250 50  0001 C CNN
F 1 "GND" H 3855 1327 50  0000 C CNN
F 2 "" H 3850 1500 50  0001 C CNN
F 3 "" H 3850 1500 50  0001 C CNN
	1    3850 1500
	1    0    0    -1  
$EndComp
Wire Wire Line
	3700 1650 3700 1150
Wire Wire Line
	3700 1150 3850 1150
Wire Wire Line
	3850 1200 3850 1150
Connection ~ 3850 1150
Wire Wire Line
	3850 1150 3900 1150
Wire Wire Line
	3700 1850 3750 1850
Text GLabel 5400 1150 2    50   Input ~ 0
3V3
$Comp
L Device:C C2
U 1 1 5CFBF3D8
P 5350 1350
F 0 "C2" H 5465 1396 50  0000 L CNN
F 1 "0.1uF" H 5465 1305 50  0000 L CNN
F 2 "Capacitors_SMD:C_0603" H 5388 1200 50  0001 C CNN
F 3 "~" H 5350 1350 50  0001 C CNN
	1    5350 1350
	1    0    0    -1  
$EndComp
$Comp
L power:GND #PWR02
U 1 1 5CFBF3DF
P 5350 1500
F 0 "#PWR02" H 5350 1250 50  0001 C CNN
F 1 "GND" H 5355 1327 50  0000 C CNN
F 2 "" H 5350 1500 50  0001 C CNN
F 3 "" H 5350 1500 50  0001 C CNN
	1    5350 1500
	1    0    0    -1  
$EndComp
Wire Wire Line
	5200 1150 5350 1150
Wire Wire Line
	5350 1200 5350 1150
Connection ~ 5350 1150
Wire Wire Line
	5350 1150 5400 1150
Wire Wire Line
	5150 1650 5200 1650
Wire Wire Line
	5200 1650 5200 1150
Wire Wire Line
	5150 1850 5200 1850
Wire Wire Line
	5750 1050 4250 1050
Wire Wire Line
	4250 1050 4250 1650
Wire Wire Line
	5750 1050 5750 1850
$Comp
L Connector:TestPoint TP1
U 1 1 5CFC81DC
P 2300 1500
F 0 "TP1" H 2358 1620 50  0000 L CNN
F 1 "32.768kHz" H 2358 1529 50  0000 L CNN
F 2 "Pin_Headers:Pin_Header_Straight_1x01_Pitch2.54mm" H 2500 1500 50  0001 C CNN
F 3 "~" H 2500 1500 50  0001 C CNN
	1    2300 1500
	1    0    0    -1  
$EndComp
Wire Wire Line
	2300 1650 2300 1500
Connection ~ 2300 1650
Wire Wire Line
	2300 1650 2900 1650
$Comp
L Connector:TestPoint TP2
U 1 1 5CFCA049
P 3750 1950
F 0 "TP2" H 3692 1977 50  0000 R CNN
F 1 "2Hz" H 3692 2068 50  0000 R CNN
F 2 "Pin_Headers:Pin_Header_Straight_1x01_Pitch2.54mm" H 3950 1950 50  0001 C CNN
F 3 "~" H 3950 1950 50  0001 C CNN
	1    3750 1950
	-1   0    0    1   
$EndComp
Wire Wire Line
	4250 1850 4350 1850
Wire Wire Line
	4250 1950 4250 1850
Wire Wire Line
	3750 1950 3750 1850
Connection ~ 3750 1850
Wire Wire Line
	3750 1850 4150 1850
$Comp
L Connector:TestPoint TP3
U 1 1 5CFCFE25
P 5200 1950
F 0 "TP3" H 5142 1977 50  0000 R CNN
F 1 "1Hz" H 5142 2068 50  0000 R CNN
F 2 "Pin_Headers:Pin_Header_Straight_1x01_Pitch2.54mm" H 5400 1950 50  0001 C CNN
F 3 "~" H 5400 1950 50  0001 C CNN
	1    5200 1950
	-1   0    0    1   
$EndComp
Wire Wire Line
	5200 1950 5200 1850
Connection ~ 5200 1850
Wire Wire Line
	5200 1850 5750 1850
Text GLabel 5150 3400 0    50   Input ~ 0
1Hz
$Comp
L unix_watch:MHSS1105 SW1
U 1 1 5CFD98D5
P 5450 3450
F 0 "SW1" H 5450 3725 50  0000 C CNN
F 1 "MHSS1105" H 5450 3634 50  0000 C CNN
F 2 "unix_watch:MHSS1105" H 5350 3500 50  0001 C CNN
F 3 "" H 5450 3450 50  0001 C CNN
F 4 "679-1849-ND" H 5550 3700 50  0001 C CNN "Digikey Part #"
	1    5450 3450
	1    0    0    -1  
$EndComp
$Comp
L power:GND #PWR09
U 1 1 5CFDE070
P 5100 3900
F 0 "#PWR09" H 5100 3650 50  0001 C CNN
F 1 "GND" H 5105 3727 50  0000 C CNN
F 2 "" H 5100 3900 50  0001 C CNN
F 3 "" H 5100 3900 50  0001 C CNN
	1    5100 3900
	1    0    0    -1  
$EndComp
Wire Wire Line
	5100 3600 5100 3500
Wire Wire Line
	5100 3500 5150 3500
$Comp
L Device:R R1
U 1 1 5CFE0551
P 5100 3750
F 0 "R1" H 5170 3796 50  0000 L CNN
F 1 "10k" H 5170 3705 50  0000 L CNN
F 2 "Resistors_SMD:R_0603" V 5030 3750 50  0001 C CNN
F 3 "~" H 5100 3750 50  0001 C CNN
	1    5100 3750
	1    0    0    -1  
$EndComp
Text Notes 2250 4350 0    50   ~ 0
These should be capacitor symbols and not resistors right?
Text Notes 1900 3400 0    50   ~ 0
TVS diode
Text Notes 1950 3500 0    50   ~ 0
PTC fuse
$EndSCHEMATC
