(export (version D)
  (design
    (source C:\Users\Richard\Documents\unix_watch\unix_watch.sch)
    (date "2019-06-18 4:56:35 PM")
    (tool "Eeschema (5.0.0)")
    (sheet (number 1) (name /) (tstamps /)
      (title_block
        (title)
        (company)
        (rev)
        (date)
        (source unix_watch.sch)
        (comment (number 1) (value ""))
        (comment (number 2) (value ""))
        (comment (number 3) (value ""))
        (comment (number 4) (value ""))))
    (sheet (number 2) (name "/Decade Counter/") (tstamps /5C8D6ACF/)
      (title_block
        (title)
        (company)
        (rev)
        (date)
        (source decade_counter.sch)
        (comment (number 1) (value ""))
        (comment (number 2) (value ""))
        (comment (number 3) (value ""))
        (comment (number 4) (value ""))))
    (sheet (number 3) (name /sheet5C8FA969/) (tstamps /5C8FA96D/)
      (title_block
        (title)
        (company)
        (rev)
        (date)
        (source decade_counter.sch)
        (comment (number 1) (value ""))
        (comment (number 2) (value ""))
        (comment (number 3) (value ""))
        (comment (number 4) (value ""))))
    (sheet (number 4) (name /sheet5C8FA9BD/) (tstamps /5C8FA9C1/)
      (title_block
        (title)
        (company)
        (rev)
        (date)
        (source decade_counter.sch)
        (comment (number 1) (value ""))
        (comment (number 2) (value ""))
        (comment (number 3) (value ""))
        (comment (number 4) (value ""))))
    (sheet (number 5) (name /sheet5C8FAA11/) (tstamps /5C8FAA15/)
      (title_block
        (title)
        (company)
        (rev)
        (date)
        (source decade_counter.sch)
        (comment (number 1) (value ""))
        (comment (number 2) (value ""))
        (comment (number 3) (value ""))
        (comment (number 4) (value ""))))
    (sheet (number 6) (name /sheet5C8FAA65/) (tstamps /5C8FAA69/)
      (title_block
        (title)
        (company)
        (rev)
        (date)
        (source decade_counter.sch)
        (comment (number 1) (value ""))
        (comment (number 2) (value ""))
        (comment (number 3) (value ""))
        (comment (number 4) (value ""))))
    (sheet (number 7) (name /sheet5C8FAAB9/) (tstamps /5C8FAABD/)
      (title_block
        (title)
        (company)
        (rev)
        (date)
        (source decade_counter.sch)
        (comment (number 1) (value ""))
        (comment (number 2) (value ""))
        (comment (number 3) (value ""))
        (comment (number 4) (value ""))))
    (sheet (number 8) (name /sheet5C8FAB0D/) (tstamps /5C8FAB11/)
      (title_block
        (title)
        (company)
        (rev)
        (date)
        (source decade_counter.sch)
        (comment (number 1) (value ""))
        (comment (number 2) (value ""))
        (comment (number 3) (value ""))
        (comment (number 4) (value ""))))
    (sheet (number 9) (name /sheet5C8FAB71/) (tstamps /5C8FAB75/)
      (title_block
        (title)
        (company)
        (rev)
        (date)
        (source decade_counter.sch)
        (comment (number 1) (value ""))
        (comment (number 2) (value ""))
        (comment (number 3) (value ""))
        (comment (number 4) (value ""))))
    (sheet (number 10) (name /sheet5C8FABC5/) (tstamps /5C8FABC9/)
      (title_block
        (title)
        (company)
        (rev)
        (date)
        (source decade_counter.sch)
        (comment (number 1) (value ""))
        (comment (number 2) (value ""))
        (comment (number 3) (value ""))
        (comment (number 4) (value ""))))
    (sheet (number 11) (name /sheet5C8FAC2D/) (tstamps /5C8FAC31/)
      (title_block
        (title)
        (company)
        (rev)
        (date)
        (source decade_counter.sch)
        (comment (number 1) (value ""))
        (comment (number 2) (value ""))
        (comment (number 3) (value ""))
        (comment (number 4) (value "")))))
  (components
    (comp (ref U3)
      (value VXO7803-500)
      (footprint unix_watch:CONV_VXO7803-500)
      (datasheet "VXO78-500 Series 24 Vin 3.3 Vout Non-Isolated Open Frame DC Switching Regulator")
      (fields
        (field (name Field4) VXO7803-500)
        (field (name Field5) "CUI Inc.")
        (field (name Field6) "SIP-3 CUI")
        (field (name Field7) 102-4248-ND)
        (field (name Field8) https://www.digikey.ca/product-detail/en/cui-inc/VXO7803-500/102-4248-ND/7350287?utm_source=snapeda&utm_medium=aggregator&utm_campaign=symbol)
        (field (name Field9) https://www.cui.com/product/power/dc-dc-converters/non-isolated/0.5-a-output-current/vxo78-500-series?utm_source=snapeda.com&utm_medium=referral&utm_campaign=snapedaBOM))
      (libsource (lib unix_watch) (part VXO7803-500) (description ""))
      (sheetpath (names /) (tstamps /))
      (tstamp 5C2C00DE))
    (comp (ref J1)
      (value 10118193-0001LF)
      (footprint unix_watch:FCI_10118193-0001LF)
      (datasheet None)
      (fields
        (field (name Field4) 10118193-0001LF)
        (field (name Field5) 609-4616-1-ND)
        (field (name Field6) "Amphenol ICC")
        (field (name Field7) "Conn Micro USB Type B RCP 5 POS 0.65mm Solder RA SMD 5 Terminal 1 Port T/R")
        (field (name Field8) https://www.digikey.ca/product-detail/en/amphenol-icc-fci/10118193-0001LF/609-4616-1-ND/2785380?utm_source=snapeda&utm_medium=aggregator&utm_campaign=symbol))
      (libsource (lib unix_watch) (part 10118193-0001LF) (description ""))
      (sheetpath (names /) (tstamps /))
      (tstamp 5C2CAD63))
    (comp (ref C4)
      (value ERA-3AEB1650V)
      (footprint unix_watch:ERA-3AEB1650V)
      (fields
        (field (name "Digikey Part #") P165DBCT-ND))
      (libsource (lib unix_watch) (part ERA-3AEB1650V) (description ""))
      (sheetpath (names /) (tstamps /))
      (tstamp 5C41143C))
    (comp (ref C5)
      (value ERA-3AEB1650V)
      (footprint unix_watch:ERA-3AEB1650V)
      (fields
        (field (name "Digikey Part #") P165DBCT-ND))
      (libsource (lib unix_watch) (part ERA-3AEB1650V) (description ""))
      (sheetpath (names /) (tstamps /))
      (tstamp 5C41157E))
    (comp (ref Y1)
      (value SIT1630)
      (footprint TO_SOT_Packages_SMD:SOT-23-5)
      (fields
        (field (name "Digikey Part #") 1473-31368-1-ND))
      (libsource (lib unix_watch) (part SIT1630) (description ""))
      (sheetpath (names /) (tstamps /))
      (tstamp 5CF9EA58))
    (comp (ref U1)
      (value 74AHC1G4214)
      (footprint TO_SOT_Packages_SMD:SOT-353_SC-70-5)
      (fields
        (field (name "Digikey Part #") 1727-7630-1-ND))
      (libsource (lib unix_watch) (part 74AHC1G4214) (description ""))
      (sheetpath (names /) (tstamps /))
      (tstamp 5CF9EB15))
    (comp (ref U2)
      (value 74LVC1G80GW,125)
      (footprint TO_SOT_Packages_SMD:SOT-353_SC-70-5)
      (fields
        (field (name "Digikey Part #") 1727-6081-1-ND))
      (libsource (lib unix_watch) (part 74LVC1G80GW,125) (description ""))
      (sheetpath (names /) (tstamps /))
      (tstamp 5CF9EBA4))
    (comp (ref C3)
      (value 0.1uF)
      (footprint Capacitors_SMD:C_0603)
      (datasheet ~)
      (libsource (lib Device) (part C) (description "Unpolarized capacitor"))
      (sheetpath (names /) (tstamps /))
      (tstamp 5CFAC408))
    (comp (ref C1)
      (value 0.1uF)
      (footprint Capacitors_SMD:C_0603)
      (datasheet ~)
      (libsource (lib Device) (part C) (description "Unpolarized capacitor"))
      (sheetpath (names /) (tstamps /))
      (tstamp 5CFB2076))
    (comp (ref C2)
      (value 0.1uF)
      (footprint Capacitors_SMD:C_0603)
      (datasheet ~)
      (libsource (lib Device) (part C) (description "Unpolarized capacitor"))
      (sheetpath (names /) (tstamps /))
      (tstamp 5CFBF3D8))
    (comp (ref TP1)
      (value 32.768kHz)
      (footprint Pin_Headers:Pin_Header_Straight_1x01_Pitch2.54mm)
      (datasheet ~)
      (libsource (lib Connector) (part TestPoint) (description "test point"))
      (sheetpath (names /) (tstamps /))
      (tstamp 5CFC81DC))
    (comp (ref TP2)
      (value 2Hz)
      (footprint Pin_Headers:Pin_Header_Straight_1x01_Pitch2.54mm)
      (datasheet ~)
      (libsource (lib Connector) (part TestPoint) (description "test point"))
      (sheetpath (names /) (tstamps /))
      (tstamp 5CFCA049))
    (comp (ref TP3)
      (value 1Hz)
      (footprint Pin_Headers:Pin_Header_Straight_1x01_Pitch2.54mm)
      (datasheet ~)
      (libsource (lib Connector) (part TestPoint) (description "test point"))
      (sheetpath (names /) (tstamps /))
      (tstamp 5CFCFE25))
    (comp (ref SW1)
      (value MHSS1105)
      (footprint unix_watch:MHSS1105)
      (fields
        (field (name "Digikey Part #") 679-1849-ND))
      (libsource (lib unix_watch) (part MHSS1105) (description ""))
      (sheetpath (names /) (tstamps /))
      (tstamp 5CFD98D5))
    (comp (ref R1)
      (value 10k)
      (footprint Resistors_SMD:R_0603)
      (datasheet ~)
      (libsource (lib Device) (part R) (description Resistor))
      (sheetpath (names /) (tstamps /))
      (tstamp 5CFE0551))
    (comp (ref U5)
      (value CD4026BNSR)
      (footprint unix_watch:CD4026BNSR)
      (fields
        (field (name "Digikey Part #") 296-28693-1-ND))
      (libsource (lib unix_watch) (part CD4026BNSR) (description ""))
      (sheetpath (names "/Decade Counter/") (tstamps /5C8D6ACF/))
      (tstamp 5C8D6E7C))
    (comp (ref C7)
      (value 0.1uF)
      (footprint Capacitors_SMD:C_0603)
      (datasheet ~)
      (libsource (lib Device) (part C) (description "Unpolarized capacitor"))
      (sheetpath (names "/Decade Counter/") (tstamps /5C8D6ACF/))
      (tstamp 5CFE4D1D))
    (comp (ref U4)
      (value 74AHC1G04GW,125)
      (footprint TO_SOT_Packages_SMD:SOT-353_SC-70-5)
      (fields
        (field (name "Digikey Part #") 1727-3147-1-ND))
      (libsource (lib unix_watch) (part 74AHC1G04GW,125) (description ""))
      (sheetpath (names "/Decade Counter/") (tstamps /5C8D6ACF/))
      (tstamp 5CFE85D6))
    (comp (ref C6)
      (value 0.1uF)
      (footprint Capacitors_SMD:C_0603)
      (datasheet ~)
      (libsource (lib Device) (part C) (description "Unpolarized capacitor"))
      (sheetpath (names "/Decade Counter/") (tstamps /5C8D6ACF/))
      (tstamp 5CFE8FF3))
    (comp (ref SW2)
      (value DS-080-C)
      (footprint unix_watch:DS-080-C)
      (fields
        (field (name "Digikey Part #") CKN10387-ND))
      (libsource (lib unix_watch) (part DS-080-C) (description ""))
      (sheetpath (names "/Decade Counter/") (tstamps /5C8D6ACF/))
      (tstamp 5CFF5F1C))
    (comp (ref D1)
      (value 7SEG)
      (footprint unix_watch:7_Segment_14.22_mm)
      (libsource (lib unix_watch) (part 7SEG) (description ""))
      (sheetpath (names "/Decade Counter/") (tstamps /5C8D6ACF/))
      (tstamp 5CFB6931))
    (comp (ref R2)
      (value 55R)
      (footprint Resistors_SMD:R_0603)
      (datasheet ~)
      (libsource (lib Device) (part R) (description Resistor))
      (sheetpath (names "/Decade Counter/") (tstamps /5C8D6ACF/))
      (tstamp 5CFB6C22))
    (comp (ref R12)
      (value 0R)
      (footprint Resistors_SMD:R_0603)
      (datasheet ~)
      (libsource (lib Device) (part R) (description Resistor))
      (sheetpath (names "/Decade Counter/") (tstamps /5C8D6ACF/))
      (tstamp 5D038070))
    (comp (ref U7)
      (value CD4026BNSR)
      (footprint unix_watch:CD4026BNSR)
      (fields
        (field (name "Digikey Part #") 296-28693-1-ND))
      (libsource (lib unix_watch) (part CD4026BNSR) (description ""))
      (sheetpath (names /sheet5C8FA969/) (tstamps /5C8FA96D/))
      (tstamp 5C8D6E7C))
    (comp (ref C9)
      (value 0.1uF)
      (footprint Capacitors_SMD:C_0603)
      (datasheet ~)
      (libsource (lib Device) (part C) (description "Unpolarized capacitor"))
      (sheetpath (names /sheet5C8FA969/) (tstamps /5C8FA96D/))
      (tstamp 5CFE4D1D))
    (comp (ref U6)
      (value 74AHC1G04GW,125)
      (footprint TO_SOT_Packages_SMD:SOT-353_SC-70-5)
      (fields
        (field (name "Digikey Part #") 1727-3147-1-ND))
      (libsource (lib unix_watch) (part 74AHC1G04GW,125) (description ""))
      (sheetpath (names /sheet5C8FA969/) (tstamps /5C8FA96D/))
      (tstamp 5CFE85D6))
    (comp (ref C8)
      (value 0.1uF)
      (footprint Capacitors_SMD:C_0603)
      (datasheet ~)
      (libsource (lib Device) (part C) (description "Unpolarized capacitor"))
      (sheetpath (names /sheet5C8FA969/) (tstamps /5C8FA96D/))
      (tstamp 5CFE8FF3))
    (comp (ref SW3)
      (value DS-080-C)
      (footprint unix_watch:DS-080-C)
      (fields
        (field (name "Digikey Part #") CKN10387-ND))
      (libsource (lib unix_watch) (part DS-080-C) (description ""))
      (sheetpath (names /sheet5C8FA969/) (tstamps /5C8FA96D/))
      (tstamp 5CFF5F1C))
    (comp (ref D2)
      (value 7SEG)
      (footprint unix_watch:7_Segment_14.22_mm)
      (libsource (lib unix_watch) (part 7SEG) (description ""))
      (sheetpath (names /sheet5C8FA969/) (tstamps /5C8FA96D/))
      (tstamp 5CFB6931))
    (comp (ref R3)
      (value 55R)
      (footprint Resistors_SMD:R_0603)
      (datasheet ~)
      (libsource (lib Device) (part R) (description Resistor))
      (sheetpath (names /sheet5C8FA969/) (tstamps /5C8FA96D/))
      (tstamp 5CFB6C22))
    (comp (ref R13)
      (value 0R)
      (footprint Resistors_SMD:R_0603)
      (datasheet ~)
      (libsource (lib Device) (part R) (description Resistor))
      (sheetpath (names /sheet5C8FA969/) (tstamps /5C8FA96D/))
      (tstamp 5D038070))
    (comp (ref U9)
      (value CD4026BNSR)
      (footprint unix_watch:CD4026BNSR)
      (fields
        (field (name "Digikey Part #") 296-28693-1-ND))
      (libsource (lib unix_watch) (part CD4026BNSR) (description ""))
      (sheetpath (names /sheet5C8FA9BD/) (tstamps /5C8FA9C1/))
      (tstamp 5C8D6E7C))
    (comp (ref C11)
      (value 0.1uF)
      (footprint Capacitors_SMD:C_0603)
      (datasheet ~)
      (libsource (lib Device) (part C) (description "Unpolarized capacitor"))
      (sheetpath (names /sheet5C8FA9BD/) (tstamps /5C8FA9C1/))
      (tstamp 5CFE4D1D))
    (comp (ref U8)
      (value 74AHC1G04GW,125)
      (footprint TO_SOT_Packages_SMD:SOT-353_SC-70-5)
      (fields
        (field (name "Digikey Part #") 1727-3147-1-ND))
      (libsource (lib unix_watch) (part 74AHC1G04GW,125) (description ""))
      (sheetpath (names /sheet5C8FA9BD/) (tstamps /5C8FA9C1/))
      (tstamp 5CFE85D6))
    (comp (ref C10)
      (value 0.1uF)
      (footprint Capacitors_SMD:C_0603)
      (datasheet ~)
      (libsource (lib Device) (part C) (description "Unpolarized capacitor"))
      (sheetpath (names /sheet5C8FA9BD/) (tstamps /5C8FA9C1/))
      (tstamp 5CFE8FF3))
    (comp (ref SW4)
      (value DS-080-C)
      (footprint unix_watch:DS-080-C)
      (fields
        (field (name "Digikey Part #") CKN10387-ND))
      (libsource (lib unix_watch) (part DS-080-C) (description ""))
      (sheetpath (names /sheet5C8FA9BD/) (tstamps /5C8FA9C1/))
      (tstamp 5CFF5F1C))
    (comp (ref D3)
      (value 7SEG)
      (footprint unix_watch:7_Segment_14.22_mm)
      (libsource (lib unix_watch) (part 7SEG) (description ""))
      (sheetpath (names /sheet5C8FA9BD/) (tstamps /5C8FA9C1/))
      (tstamp 5CFB6931))
    (comp (ref R4)
      (value 55R)
      (footprint Resistors_SMD:R_0603)
      (datasheet ~)
      (libsource (lib Device) (part R) (description Resistor))
      (sheetpath (names /sheet5C8FA9BD/) (tstamps /5C8FA9C1/))
      (tstamp 5CFB6C22))
    (comp (ref R14)
      (value 0R)
      (footprint Resistors_SMD:R_0603)
      (datasheet ~)
      (libsource (lib Device) (part R) (description Resistor))
      (sheetpath (names /sheet5C8FA9BD/) (tstamps /5C8FA9C1/))
      (tstamp 5D038070))
    (comp (ref U11)
      (value CD4026BNSR)
      (footprint unix_watch:CD4026BNSR)
      (fields
        (field (name "Digikey Part #") 296-28693-1-ND))
      (libsource (lib unix_watch) (part CD4026BNSR) (description ""))
      (sheetpath (names /sheet5C8FAA11/) (tstamps /5C8FAA15/))
      (tstamp 5C8D6E7C))
    (comp (ref C13)
      (value 0.1uF)
      (footprint Capacitors_SMD:C_0603)
      (datasheet ~)
      (libsource (lib Device) (part C) (description "Unpolarized capacitor"))
      (sheetpath (names /sheet5C8FAA11/) (tstamps /5C8FAA15/))
      (tstamp 5CFE4D1D))
    (comp (ref U10)
      (value 74AHC1G04GW,125)
      (footprint TO_SOT_Packages_SMD:SOT-353_SC-70-5)
      (fields
        (field (name "Digikey Part #") 1727-3147-1-ND))
      (libsource (lib unix_watch) (part 74AHC1G04GW,125) (description ""))
      (sheetpath (names /sheet5C8FAA11/) (tstamps /5C8FAA15/))
      (tstamp 5CFE85D6))
    (comp (ref C12)
      (value 0.1uF)
      (footprint Capacitors_SMD:C_0603)
      (datasheet ~)
      (libsource (lib Device) (part C) (description "Unpolarized capacitor"))
      (sheetpath (names /sheet5C8FAA11/) (tstamps /5C8FAA15/))
      (tstamp 5CFE8FF3))
    (comp (ref SW5)
      (value DS-080-C)
      (footprint unix_watch:DS-080-C)
      (fields
        (field (name "Digikey Part #") CKN10387-ND))
      (libsource (lib unix_watch) (part DS-080-C) (description ""))
      (sheetpath (names /sheet5C8FAA11/) (tstamps /5C8FAA15/))
      (tstamp 5CFF5F1C))
    (comp (ref D4)
      (value 7SEG)
      (footprint unix_watch:7_Segment_14.22_mm)
      (libsource (lib unix_watch) (part 7SEG) (description ""))
      (sheetpath (names /sheet5C8FAA11/) (tstamps /5C8FAA15/))
      (tstamp 5CFB6931))
    (comp (ref R5)
      (value 55R)
      (footprint Resistors_SMD:R_0603)
      (datasheet ~)
      (libsource (lib Device) (part R) (description Resistor))
      (sheetpath (names /sheet5C8FAA11/) (tstamps /5C8FAA15/))
      (tstamp 5CFB6C22))
    (comp (ref R15)
      (value 0R)
      (footprint Resistors_SMD:R_0603)
      (datasheet ~)
      (libsource (lib Device) (part R) (description Resistor))
      (sheetpath (names /sheet5C8FAA11/) (tstamps /5C8FAA15/))
      (tstamp 5D038070))
    (comp (ref U13)
      (value CD4026BNSR)
      (footprint unix_watch:CD4026BNSR)
      (fields
        (field (name "Digikey Part #") 296-28693-1-ND))
      (libsource (lib unix_watch) (part CD4026BNSR) (description ""))
      (sheetpath (names /sheet5C8FAA65/) (tstamps /5C8FAA69/))
      (tstamp 5C8D6E7C))
    (comp (ref C15)
      (value 0.1uF)
      (footprint Capacitors_SMD:C_0603)
      (datasheet ~)
      (libsource (lib Device) (part C) (description "Unpolarized capacitor"))
      (sheetpath (names /sheet5C8FAA65/) (tstamps /5C8FAA69/))
      (tstamp 5CFE4D1D))
    (comp (ref U12)
      (value 74AHC1G04GW,125)
      (footprint TO_SOT_Packages_SMD:SOT-353_SC-70-5)
      (fields
        (field (name "Digikey Part #") 1727-3147-1-ND))
      (libsource (lib unix_watch) (part 74AHC1G04GW,125) (description ""))
      (sheetpath (names /sheet5C8FAA65/) (tstamps /5C8FAA69/))
      (tstamp 5CFE85D6))
    (comp (ref C14)
      (value 0.1uF)
      (footprint Capacitors_SMD:C_0603)
      (datasheet ~)
      (libsource (lib Device) (part C) (description "Unpolarized capacitor"))
      (sheetpath (names /sheet5C8FAA65/) (tstamps /5C8FAA69/))
      (tstamp 5CFE8FF3))
    (comp (ref SW6)
      (value DS-080-C)
      (footprint unix_watch:DS-080-C)
      (fields
        (field (name "Digikey Part #") CKN10387-ND))
      (libsource (lib unix_watch) (part DS-080-C) (description ""))
      (sheetpath (names /sheet5C8FAA65/) (tstamps /5C8FAA69/))
      (tstamp 5CFF5F1C))
    (comp (ref D5)
      (value 7SEG)
      (footprint unix_watch:7_Segment_14.22_mm)
      (libsource (lib unix_watch) (part 7SEG) (description ""))
      (sheetpath (names /sheet5C8FAA65/) (tstamps /5C8FAA69/))
      (tstamp 5CFB6931))
    (comp (ref R6)
      (value 55R)
      (footprint Resistors_SMD:R_0603)
      (datasheet ~)
      (libsource (lib Device) (part R) (description Resistor))
      (sheetpath (names /sheet5C8FAA65/) (tstamps /5C8FAA69/))
      (tstamp 5CFB6C22))
    (comp (ref R16)
      (value 0R)
      (footprint Resistors_SMD:R_0603)
      (datasheet ~)
      (libsource (lib Device) (part R) (description Resistor))
      (sheetpath (names /sheet5C8FAA65/) (tstamps /5C8FAA69/))
      (tstamp 5D038070))
    (comp (ref U15)
      (value CD4026BNSR)
      (footprint unix_watch:CD4026BNSR)
      (fields
        (field (name "Digikey Part #") 296-28693-1-ND))
      (libsource (lib unix_watch) (part CD4026BNSR) (description ""))
      (sheetpath (names /sheet5C8FAAB9/) (tstamps /5C8FAABD/))
      (tstamp 5C8D6E7C))
    (comp (ref C17)
      (value 0.1uF)
      (footprint Capacitors_SMD:C_0603)
      (datasheet ~)
      (libsource (lib Device) (part C) (description "Unpolarized capacitor"))
      (sheetpath (names /sheet5C8FAAB9/) (tstamps /5C8FAABD/))
      (tstamp 5CFE4D1D))
    (comp (ref U14)
      (value 74AHC1G04GW,125)
      (footprint TO_SOT_Packages_SMD:SOT-353_SC-70-5)
      (fields
        (field (name "Digikey Part #") 1727-3147-1-ND))
      (libsource (lib unix_watch) (part 74AHC1G04GW,125) (description ""))
      (sheetpath (names /sheet5C8FAAB9/) (tstamps /5C8FAABD/))
      (tstamp 5CFE85D6))
    (comp (ref C16)
      (value 0.1uF)
      (footprint Capacitors_SMD:C_0603)
      (datasheet ~)
      (libsource (lib Device) (part C) (description "Unpolarized capacitor"))
      (sheetpath (names /sheet5C8FAAB9/) (tstamps /5C8FAABD/))
      (tstamp 5CFE8FF3))
    (comp (ref SW7)
      (value DS-080-C)
      (footprint unix_watch:DS-080-C)
      (fields
        (field (name "Digikey Part #") CKN10387-ND))
      (libsource (lib unix_watch) (part DS-080-C) (description ""))
      (sheetpath (names /sheet5C8FAAB9/) (tstamps /5C8FAABD/))
      (tstamp 5CFF5F1C))
    (comp (ref D6)
      (value 7SEG)
      (footprint unix_watch:7_Segment_14.22_mm)
      (libsource (lib unix_watch) (part 7SEG) (description ""))
      (sheetpath (names /sheet5C8FAAB9/) (tstamps /5C8FAABD/))
      (tstamp 5CFB6931))
    (comp (ref R7)
      (value 55R)
      (footprint Resistors_SMD:R_0603)
      (datasheet ~)
      (libsource (lib Device) (part R) (description Resistor))
      (sheetpath (names /sheet5C8FAAB9/) (tstamps /5C8FAABD/))
      (tstamp 5CFB6C22))
    (comp (ref R17)
      (value 0R)
      (footprint Resistors_SMD:R_0603)
      (datasheet ~)
      (libsource (lib Device) (part R) (description Resistor))
      (sheetpath (names /sheet5C8FAAB9/) (tstamps /5C8FAABD/))
      (tstamp 5D038070))
    (comp (ref U17)
      (value CD4026BNSR)
      (footprint unix_watch:CD4026BNSR)
      (fields
        (field (name "Digikey Part #") 296-28693-1-ND))
      (libsource (lib unix_watch) (part CD4026BNSR) (description ""))
      (sheetpath (names /sheet5C8FAB0D/) (tstamps /5C8FAB11/))
      (tstamp 5C8D6E7C))
    (comp (ref C19)
      (value 0.1uF)
      (footprint Capacitors_SMD:C_0603)
      (datasheet ~)
      (libsource (lib Device) (part C) (description "Unpolarized capacitor"))
      (sheetpath (names /sheet5C8FAB0D/) (tstamps /5C8FAB11/))
      (tstamp 5CFE4D1D))
    (comp (ref U16)
      (value 74AHC1G04GW,125)
      (footprint TO_SOT_Packages_SMD:SOT-353_SC-70-5)
      (fields
        (field (name "Digikey Part #") 1727-3147-1-ND))
      (libsource (lib unix_watch) (part 74AHC1G04GW,125) (description ""))
      (sheetpath (names /sheet5C8FAB0D/) (tstamps /5C8FAB11/))
      (tstamp 5CFE85D6))
    (comp (ref C18)
      (value 0.1uF)
      (footprint Capacitors_SMD:C_0603)
      (datasheet ~)
      (libsource (lib Device) (part C) (description "Unpolarized capacitor"))
      (sheetpath (names /sheet5C8FAB0D/) (tstamps /5C8FAB11/))
      (tstamp 5CFE8FF3))
    (comp (ref SW8)
      (value DS-080-C)
      (footprint unix_watch:DS-080-C)
      (fields
        (field (name "Digikey Part #") CKN10387-ND))
      (libsource (lib unix_watch) (part DS-080-C) (description ""))
      (sheetpath (names /sheet5C8FAB0D/) (tstamps /5C8FAB11/))
      (tstamp 5CFF5F1C))
    (comp (ref D7)
      (value 7SEG)
      (footprint unix_watch:7_Segment_14.22_mm)
      (libsource (lib unix_watch) (part 7SEG) (description ""))
      (sheetpath (names /sheet5C8FAB0D/) (tstamps /5C8FAB11/))
      (tstamp 5CFB6931))
    (comp (ref R8)
      (value 55R)
      (footprint Resistors_SMD:R_0603)
      (datasheet ~)
      (libsource (lib Device) (part R) (description Resistor))
      (sheetpath (names /sheet5C8FAB0D/) (tstamps /5C8FAB11/))
      (tstamp 5CFB6C22))
    (comp (ref R18)
      (value 0R)
      (footprint Resistors_SMD:R_0603)
      (datasheet ~)
      (libsource (lib Device) (part R) (description Resistor))
      (sheetpath (names /sheet5C8FAB0D/) (tstamps /5C8FAB11/))
      (tstamp 5D038070))
    (comp (ref U19)
      (value CD4026BNSR)
      (footprint unix_watch:CD4026BNSR)
      (fields
        (field (name "Digikey Part #") 296-28693-1-ND))
      (libsource (lib unix_watch) (part CD4026BNSR) (description ""))
      (sheetpath (names /sheet5C8FAB71/) (tstamps /5C8FAB75/))
      (tstamp 5C8D6E7C))
    (comp (ref C21)
      (value 0.1uF)
      (footprint Capacitors_SMD:C_0603)
      (datasheet ~)
      (libsource (lib Device) (part C) (description "Unpolarized capacitor"))
      (sheetpath (names /sheet5C8FAB71/) (tstamps /5C8FAB75/))
      (tstamp 5CFE4D1D))
    (comp (ref U18)
      (value 74AHC1G04GW,125)
      (footprint TO_SOT_Packages_SMD:SOT-353_SC-70-5)
      (fields
        (field (name "Digikey Part #") 1727-3147-1-ND))
      (libsource (lib unix_watch) (part 74AHC1G04GW,125) (description ""))
      (sheetpath (names /sheet5C8FAB71/) (tstamps /5C8FAB75/))
      (tstamp 5CFE85D6))
    (comp (ref C20)
      (value 0.1uF)
      (footprint Capacitors_SMD:C_0603)
      (datasheet ~)
      (libsource (lib Device) (part C) (description "Unpolarized capacitor"))
      (sheetpath (names /sheet5C8FAB71/) (tstamps /5C8FAB75/))
      (tstamp 5CFE8FF3))
    (comp (ref SW9)
      (value DS-080-C)
      (footprint unix_watch:DS-080-C)
      (fields
        (field (name "Digikey Part #") CKN10387-ND))
      (libsource (lib unix_watch) (part DS-080-C) (description ""))
      (sheetpath (names /sheet5C8FAB71/) (tstamps /5C8FAB75/))
      (tstamp 5CFF5F1C))
    (comp (ref D8)
      (value 7SEG)
      (footprint unix_watch:7_Segment_14.22_mm)
      (libsource (lib unix_watch) (part 7SEG) (description ""))
      (sheetpath (names /sheet5C8FAB71/) (tstamps /5C8FAB75/))
      (tstamp 5CFB6931))
    (comp (ref R9)
      (value 55R)
      (footprint Resistors_SMD:R_0603)
      (datasheet ~)
      (libsource (lib Device) (part R) (description Resistor))
      (sheetpath (names /sheet5C8FAB71/) (tstamps /5C8FAB75/))
      (tstamp 5CFB6C22))
    (comp (ref R19)
      (value 0R)
      (footprint Resistors_SMD:R_0603)
      (datasheet ~)
      (libsource (lib Device) (part R) (description Resistor))
      (sheetpath (names /sheet5C8FAB71/) (tstamps /5C8FAB75/))
      (tstamp 5D038070))
    (comp (ref U21)
      (value CD4026BNSR)
      (footprint unix_watch:CD4026BNSR)
      (fields
        (field (name "Digikey Part #") 296-28693-1-ND))
      (libsource (lib unix_watch) (part CD4026BNSR) (description ""))
      (sheetpath (names /sheet5C8FABC5/) (tstamps /5C8FABC9/))
      (tstamp 5C8D6E7C))
    (comp (ref C23)
      (value 0.1uF)
      (footprint Capacitors_SMD:C_0603)
      (datasheet ~)
      (libsource (lib Device) (part C) (description "Unpolarized capacitor"))
      (sheetpath (names /sheet5C8FABC5/) (tstamps /5C8FABC9/))
      (tstamp 5CFE4D1D))
    (comp (ref U20)
      (value 74AHC1G04GW,125)
      (footprint TO_SOT_Packages_SMD:SOT-353_SC-70-5)
      (fields
        (field (name "Digikey Part #") 1727-3147-1-ND))
      (libsource (lib unix_watch) (part 74AHC1G04GW,125) (description ""))
      (sheetpath (names /sheet5C8FABC5/) (tstamps /5C8FABC9/))
      (tstamp 5CFE85D6))
    (comp (ref C22)
      (value 0.1uF)
      (footprint Capacitors_SMD:C_0603)
      (datasheet ~)
      (libsource (lib Device) (part C) (description "Unpolarized capacitor"))
      (sheetpath (names /sheet5C8FABC5/) (tstamps /5C8FABC9/))
      (tstamp 5CFE8FF3))
    (comp (ref SW10)
      (value DS-080-C)
      (footprint unix_watch:DS-080-C)
      (fields
        (field (name "Digikey Part #") CKN10387-ND))
      (libsource (lib unix_watch) (part DS-080-C) (description ""))
      (sheetpath (names /sheet5C8FABC5/) (tstamps /5C8FABC9/))
      (tstamp 5CFF5F1C))
    (comp (ref D9)
      (value 7SEG)
      (footprint unix_watch:7_Segment_14.22_mm)
      (libsource (lib unix_watch) (part 7SEG) (description ""))
      (sheetpath (names /sheet5C8FABC5/) (tstamps /5C8FABC9/))
      (tstamp 5CFB6931))
    (comp (ref R10)
      (value 55R)
      (footprint Resistors_SMD:R_0603)
      (datasheet ~)
      (libsource (lib Device) (part R) (description Resistor))
      (sheetpath (names /sheet5C8FABC5/) (tstamps /5C8FABC9/))
      (tstamp 5CFB6C22))
    (comp (ref R20)
      (value 0R)
      (footprint Resistors_SMD:R_0603)
      (datasheet ~)
      (libsource (lib Device) (part R) (description Resistor))
      (sheetpath (names /sheet5C8FABC5/) (tstamps /5C8FABC9/))
      (tstamp 5D038070))
    (comp (ref U23)
      (value CD4026BNSR)
      (footprint unix_watch:CD4026BNSR)
      (fields
        (field (name "Digikey Part #") 296-28693-1-ND))
      (libsource (lib unix_watch) (part CD4026BNSR) (description ""))
      (sheetpath (names /sheet5C8FAC2D/) (tstamps /5C8FAC31/))
      (tstamp 5C8D6E7C))
    (comp (ref C25)
      (value 0.1uF)
      (footprint Capacitors_SMD:C_0603)
      (datasheet ~)
      (libsource (lib Device) (part C) (description "Unpolarized capacitor"))
      (sheetpath (names /sheet5C8FAC2D/) (tstamps /5C8FAC31/))
      (tstamp 5CFE4D1D))
    (comp (ref U22)
      (value 74AHC1G04GW,125)
      (footprint TO_SOT_Packages_SMD:SOT-353_SC-70-5)
      (fields
        (field (name "Digikey Part #") 1727-3147-1-ND))
      (libsource (lib unix_watch) (part 74AHC1G04GW,125) (description ""))
      (sheetpath (names /sheet5C8FAC2D/) (tstamps /5C8FAC31/))
      (tstamp 5CFE85D6))
    (comp (ref C24)
      (value 0.1uF)
      (footprint Capacitors_SMD:C_0603)
      (datasheet ~)
      (libsource (lib Device) (part C) (description "Unpolarized capacitor"))
      (sheetpath (names /sheet5C8FAC2D/) (tstamps /5C8FAC31/))
      (tstamp 5CFE8FF3))
    (comp (ref SW11)
      (value DS-080-C)
      (footprint unix_watch:DS-080-C)
      (fields
        (field (name "Digikey Part #") CKN10387-ND))
      (libsource (lib unix_watch) (part DS-080-C) (description ""))
      (sheetpath (names /sheet5C8FAC2D/) (tstamps /5C8FAC31/))
      (tstamp 5CFF5F1C))
    (comp (ref D10)
      (value 7SEG)
      (footprint unix_watch:7_Segment_14.22_mm)
      (libsource (lib unix_watch) (part 7SEG) (description ""))
      (sheetpath (names /sheet5C8FAC2D/) (tstamps /5C8FAC31/))
      (tstamp 5CFB6931))
    (comp (ref R11)
      (value 55R)
      (footprint Resistors_SMD:R_0603)
      (datasheet ~)
      (libsource (lib Device) (part R) (description Resistor))
      (sheetpath (names /sheet5C8FAC2D/) (tstamps /5C8FAC31/))
      (tstamp 5CFB6C22))
    (comp (ref R21)
      (value 0R)
      (footprint Resistors_SMD:R_0603)
      (datasheet ~)
      (libsource (lib Device) (part R) (description Resistor))
      (sheetpath (names /sheet5C8FAC2D/) (tstamps /5C8FAC31/))
      (tstamp 5D038070)))
  (libparts
    (libpart (lib Connector) (part TestPoint)
      (description "test point")
      (docs ~)
      (footprints
        (fp Pin*)
        (fp Test*))
      (fields
        (field (name Reference) TP)
        (field (name Value) TestPoint))
      (pins
        (pin (num 1) (name 1) (type passive))))
    (libpart (lib Device) (part C)
      (description "Unpolarized capacitor")
      (docs ~)
      (footprints
        (fp C_*))
      (fields
        (field (name Reference) C)
        (field (name Value) C))
      (pins
        (pin (num 1) (name ~) (type passive))
        (pin (num 2) (name ~) (type passive))))
    (libpart (lib Device) (part R)
      (description Resistor)
      (docs ~)
      (footprints
        (fp R_*))
      (fields
        (field (name Reference) R)
        (field (name Value) R))
      (pins
        (pin (num 1) (name ~) (type passive))
        (pin (num 2) (name ~) (type passive))))
    (libpart (lib unix_watch) (part 10118193-0001LF)
      (fields
        (field (name Reference) J)
        (field (name Value) 10118193-0001LF)
        (field (name Footprint) unix_watch:FCI_10118193-0001LF)
        (field (name Datasheet) None)
        (field (name Field4) 10118193-0001LF)
        (field (name Field5) 609-4616-1-ND)
        (field (name Field6) "Amphenol ICC")
        (field (name Field7) "Conn Micro USB Type B RCP 5 POS 0.65mm Solder RA SMD 5 Terminal 1 Port T/R")
        (field (name Field8) https://www.digikey.ca/product-detail/en/amphenol-icc-fci/10118193-0001LF/609-4616-1-ND/2785380?utm_source=snapeda&utm_medium=aggregator&utm_campaign=symbol))
      (pins
        (pin (num 1) (name VUSB) (type passive))
        (pin (num 2) (name D-) (type passive))
        (pin (num 3) (name D+) (type passive))
        (pin (num 4) (name ID) (type passive))
        (pin (num 5) (name GND) (type passive))
        (pin (num S1) (name SHIELD) (type passive))
        (pin (num S2) (name SHIELD) (type passive))
        (pin (num S3) (name SHIELD) (type passive))
        (pin (num S4) (name SHIELD) (type passive))
        (pin (num S5) (name SHIELD) (type passive))
        (pin (num S6) (name SHIELD) (type passive))))
    (libpart (lib unix_watch) (part 74AHC1G04GW,125)
      (fields
        (field (name Reference) U)
        (field (name Value) 74AHC1G04GW,125)
        (field (name Footprint) TO_SOT_Packages_SMD:SOT-353_SC-70-5)
        (field (name "Digikey Part #") 1727-3147-1-ND))
      (pins
        (pin (num 1) (name NC) (type NotConnected))
        (pin (num 2) (name A) (type input))
        (pin (num 3) (name GND) (type power_in))
        (pin (num 4) (name Y) (type output))
        (pin (num 5) (name VCC) (type power_in))))
    (libpart (lib unix_watch) (part 74AHC1G4214)
      (fields
        (field (name Reference) U)
        (field (name Value) 74AHC1G4214)
        (field (name Footprint) TO_SOT_Packages_SMD:SOT-353_SC-70-5)
        (field (name "Digikey Part #") 1727-7630-1-ND))
      (pins
        (pin (num 1) (name X1) (type input))
        (pin (num 2) (name X2) (type input))
        (pin (num 3) (name GND) (type power_in))
        (pin (num 4) (name Q) (type output))
        (pin (num 5) (name VCC) (type power_in))))
    (libpart (lib unix_watch) (part 74LVC1G80GW,125)
      (fields
        (field (name Reference) U)
        (field (name Value) 74LVC1G80GW,125)
        (field (name Footprint) TO_SOT_Packages_SMD:SOT-353_SC-70-5)
        (field (name "Digikey Part #") 1727-6081-1-ND))
      (pins
        (pin (num 1) (name D) (type input))
        (pin (num 2) (name CP) (type input))
        (pin (num 3) (name GND) (type power_in))
        (pin (num 4) (name ~Q) (type output))
        (pin (num 5) (name VCC) (type power_in))))
    (libpart (lib unix_watch) (part 7SEG)
      (fields
        (field (name Reference) D)
        (field (name Value) 7SEG)
        (field (name Footprint) unix_watch:7_Segment_14.22_mm))
      (pins
        (pin (num 1) (name E) (type power_in))
        (pin (num 2) (name D) (type power_in))
        (pin (num 3) (name VSS) (type power_in))
        (pin (num 4) (name C) (type power_in))
        (pin (num 5) (name DP) (type power_in))
        (pin (num 6) (name B) (type power_in))
        (pin (num 7) (name A) (type power_in))
        (pin (num 8) (name VSS) (type power_in))
        (pin (num 9) (name F) (type power_in))
        (pin (num 10) (name G) (type power_in))))
    (libpart (lib unix_watch) (part CD4026BNSR)
      (footprints
        (fp NS16)
        (fp NS16-M)
        (fp NS16-L))
      (fields
        (field (name Reference) U)
        (field (name Value) CD4026BNSR)
        (field (name Footprint) unix_watch:CD4026BNSR)
        (field (name "Digikey Part #") 296-28693-1-ND))
      (pins
        (pin (num 1) (name CLOCK) (type unspc))
        (pin (num 2) (name CLOCKINHIBIT) (type unspc))
        (pin (num 3) (name DISPLAYENABLEIN) (type input))
        (pin (num 4) (name DISPLAYENABLEOUT) (type output))
        (pin (num 5) (name CARRYOUT) (type output))
        (pin (num 6) (name F) (type unspc))
        (pin (num 7) (name G) (type unspc))
        (pin (num 8) (name VSS) (type power_in))
        (pin (num 9) (name D) (type unspc))
        (pin (num 10) (name A) (type unspc))
        (pin (num 11) (name E) (type unspc))
        (pin (num 12) (name B) (type unspc))
        (pin (num 13) (name C) (type unspc))
        (pin (num 14) (name UNGATEDCSEGMENTOUT) (type output))
        (pin (num 15) (name RESET) (type unspc))
        (pin (num 16) (name VDD) (type power_in))))
    (libpart (lib unix_watch) (part DS-080-C)
      (fields
        (field (name Reference) SW)
        (field (name Value) DS-080-C)
        (field (name Footprint) unix_watch:DS-080-C)
        (field (name "Digikey Part #") CKN10387-ND))
      (pins
        (pin (num 1) (name NO) (type BiDi))
        (pin (num 2) (name ~) (type BiDi))
        (pin (num 3) (name NC) (type BiDi))))
    (libpart (lib unix_watch) (part ERA-3AEB1650V)
      (footprints
        (fp RES_ERA3A_0603)
        (fp RES_ERA3A_0603-M)
        (fp RES_ERA3A_0603-L))
      (fields
        (field (name Reference) R)
        (field (name Value) ERA-3AEB1650V)
        (field (name Footprint) unix_watch:ERA-3AEB1650V)
        (field (name "Digikey Part #") P165DBCT-ND))
      (pins
        (pin (num 1) (name 1) (type unspc))
        (pin (num 2) (name 2) (type unspc))))
    (libpart (lib unix_watch) (part MHSS1105)
      (fields
        (field (name Reference) SW)
        (field (name Value) MHSS1105)
        (field (name Footprint) unix_watch:MHSS1105)
        (field (name "Digikey Part #") 679-1849-ND))
      (pins
        (pin (num 1) (name ~) (type BiDi))
        (pin (num 2) (name ~) (type BiDi))
        (pin (num 3) (name ~) (type BiDi))))
    (libpart (lib unix_watch) (part SIT1630)
      (fields
        (field (name Reference) Y)
        (field (name Value) SIT1630)
        (field (name Footprint) TO_SOT_Packages_SMD:SOT-23-5)
        (field (name "Digikey Part #") 1473-31368-1-ND))
      (pins
        (pin (num 1) (name GND) (type power_in))
        (pin (num 2) (name NC) (type NotConnected))
        (pin (num 3) (name NC) (type NotConnected))
        (pin (num 4) (name VDD) (type power_in))
        (pin (num 5) (name CLK) (type output))))
    (libpart (lib unix_watch) (part VXO7803-500)
      (fields
        (field (name Reference) U)
        (field (name Value) VXO7803-500)
        (field (name Footprint) unix_watch:CONV_VXO7803-500)
        (field (name Datasheet) "VXO78-500 Series 24 Vin 3.3 Vout Non-Isolated Open Frame DC Switching Regulator")
        (field (name Field4) VXO7803-500)
        (field (name Field5) "CUI Inc.")
        (field (name Field6) "SIP-3 CUI")
        (field (name Field7) 102-4248-ND)
        (field (name Field8) https://www.digikey.ca/product-detail/en/cui-inc/VXO7803-500/102-4248-ND/7350287?utm_source=snapeda&utm_medium=aggregator&utm_campaign=symbol)
        (field (name Field9) https://www.cui.com/product/power/dc-dc-converters/non-isolated/0.5-a-output-current/vxo78-500-series?utm_source=snapeda.com&utm_medium=referral&utm_campaign=snapedaBOM))
      (pins
        (pin (num 1) (name +VIN) (type input))
        (pin (num 2) (name GND/-VOUT) (type output))
        (pin (num 3) (name +VOUT/GND) (type output)))))
  (libraries
    (library (logical Connector)
      (uri "C:\\Program Files\\KiCad\\share\\kicad\\library/Connector.lib"))
    (library (logical Device)
      (uri "C:\\Program Files\\KiCad\\share\\kicad\\library/Device.lib"))
    (library (logical unix_watch)
      (uri C:\Users\Richard\Documents\unix_watch/unix_watch.lib)))
  (nets
    (net (code 1) (name 3V3)
      (node (ref C20) (pin 1))
      (node (ref C17) (pin 1))
      (node (ref C7) (pin 1))
      (node (ref C13) (pin 1))
      (node (ref U19) (pin 16))
      (node (ref U19) (pin 3))
      (node (ref C21) (pin 1))
      (node (ref U21) (pin 3))
      (node (ref C10) (pin 1))
      (node (ref U8) (pin 5))
      (node (ref C23) (pin 1))
      (node (ref U3) (pin 3))
      (node (ref C4) (pin 2))
      (node (ref C9) (pin 1))
      (node (ref C6) (pin 1))
      (node (ref U4) (pin 5))
      (node (ref U18) (pin 5))
      (node (ref U17) (pin 16))
      (node (ref C12) (pin 1))
      (node (ref U17) (pin 3))
      (node (ref U10) (pin 5))
      (node (ref C19) (pin 1))
      (node (ref C15) (pin 1))
      (node (ref U14) (pin 5))
      (node (ref C16) (pin 1))
      (node (ref C18) (pin 1))
      (node (ref U11) (pin 3))
      (node (ref U11) (pin 16))
      (node (ref U15) (pin 3))
      (node (ref U15) (pin 16))
      (node (ref U13) (pin 16))
      (node (ref U13) (pin 3))
      (node (ref U16) (pin 5))
      (node (ref U23) (pin 3))
      (node (ref U1) (pin 5))
      (node (ref U22) (pin 5))
      (node (ref U6) (pin 5))
      (node (ref C8) (pin 1))
      (node (ref U2) (pin 5))
      (node (ref U23) (pin 16))
      (node (ref C25) (pin 1))
      (node (ref C24) (pin 1))
      (node (ref C3) (pin 1))
      (node (ref C11) (pin 1))
      (node (ref C1) (pin 1))
      (node (ref Y1) (pin 4))
      (node (ref C2) (pin 1))
      (node (ref C22) (pin 1))
      (node (ref C14) (pin 1))
      (node (ref U5) (pin 16))
      (node (ref U5) (pin 3))
      (node (ref U7) (pin 16))
      (node (ref U21) (pin 16))
      (node (ref U9) (pin 3))
      (node (ref U12) (pin 5))
      (node (ref U9) (pin 16))
      (node (ref U7) (pin 3))
      (node (ref U20) (pin 5)))
    (net (code 2) (name "Net-(U1-Pad2)")
      (node (ref U1) (pin 2)))
    (net (code 3) (name "Net-(Y1-Pad2)")
      (node (ref Y1) (pin 2)))
    (net (code 4) (name "Net-(Y1-Pad3)")
      (node (ref Y1) (pin 3)))
    (net (code 5) (name /32.768kHz)
      (node (ref U1) (pin 1))
      (node (ref Y1) (pin 5))
      (node (ref TP1) (pin 1)))
    (net (code 6) (name GND)
      (node (ref C15) (pin 2))
      (node (ref R8) (pin 2))
      (node (ref U13) (pin 8))
      (node (ref U13) (pin 2))
      (node (ref U13) (pin 15))
      (node (ref U8) (pin 3))
      (node (ref C10) (pin 2))
      (node (ref R5) (pin 2))
      (node (ref U9) (pin 15))
      (node (ref U9) (pin 2))
      (node (ref U9) (pin 8))
      (node (ref C11) (pin 2))
      (node (ref R4) (pin 2))
      (node (ref R6) (pin 2))
      (node (ref U10) (pin 3))
      (node (ref C12) (pin 2))
      (node (ref U11) (pin 15))
      (node (ref U11) (pin 2))
      (node (ref U11) (pin 8))
      (node (ref C13) (pin 2))
      (node (ref R10) (pin 2))
      (node (ref C23) (pin 2))
      (node (ref U21) (pin 8))
      (node (ref U21) (pin 2))
      (node (ref U21) (pin 15))
      (node (ref U19) (pin 8))
      (node (ref U19) (pin 2))
      (node (ref U19) (pin 15))
      (node (ref C20) (pin 2))
      (node (ref U18) (pin 3))
      (node (ref U23) (pin 2))
      (node (ref U23) (pin 15))
      (node (ref C24) (pin 2))
      (node (ref U22) (pin 3))
      (node (ref C22) (pin 2))
      (node (ref U20) (pin 3))
      (node (ref R11) (pin 2))
      (node (ref C25) (pin 2))
      (node (ref U23) (pin 8))
      (node (ref U15) (pin 8))
      (node (ref U15) (pin 2))
      (node (ref U15) (pin 15))
      (node (ref C16) (pin 2))
      (node (ref U14) (pin 3))
      (node (ref C14) (pin 2))
      (node (ref U12) (pin 3))
      (node (ref R7) (pin 2))
      (node (ref C17) (pin 2))
      (node (ref U16) (pin 3))
      (node (ref C18) (pin 2))
      (node (ref R9) (pin 2))
      (node (ref C21) (pin 2))
      (node (ref C19) (pin 2))
      (node (ref U17) (pin 8))
      (node (ref U17) (pin 2))
      (node (ref U17) (pin 15))
      (node (ref U2) (pin 3))
      (node (ref C8) (pin 2))
      (node (ref U5) (pin 15))
      (node (ref C3) (pin 2))
      (node (ref C9) (pin 2))
      (node (ref Y1) (pin 1))
      (node (ref U5) (pin 2))
      (node (ref C1) (pin 2))
      (node (ref U1) (pin 3))
      (node (ref U7) (pin 8))
      (node (ref C6) (pin 2))
      (node (ref U7) (pin 2))
      (node (ref U7) (pin 15))
      (node (ref R2) (pin 2))
      (node (ref U4) (pin 3))
      (node (ref C2) (pin 2))
      (node (ref U3) (pin 2))
      (node (ref C4) (pin 1))
      (node (ref C7) (pin 2))
      (node (ref J1) (pin 5))
      (node (ref U6) (pin 3))
      (node (ref C5) (pin 2))
      (node (ref R3) (pin 2))
      (node (ref U5) (pin 8))
      (node (ref R1) (pin 2)))
    (net (code 7) (name /2Hz)
      (node (ref TP2) (pin 1))
      (node (ref U1) (pin 4))
      (node (ref U2) (pin 2)))
    (net (code 8) (name "Net-(R1-Pad1)")
      (node (ref SW1) (pin 3))
      (node (ref R1) (pin 1)))
    (net (code 9) (name 1Hz)
      (node (ref TP3) (pin 1))
      (node (ref U2) (pin 4))
      (node (ref U2) (pin 1))
      (node (ref SW1) (pin 1)))
    (net (code 10) (name /sheet5C8FAA65/Carry)
      (node (ref U14) (pin 2))
      (node (ref SW7) (pin 3))
      (node (ref R16) (pin 1)))
    (net (code 11) (name "/Decade Counter/Clock")
      (node (ref U4) (pin 2))
      (node (ref SW2) (pin 3))
      (node (ref SW1) (pin 2)))
    (net (code 12) (name /sheet5C8FA969/Carry)
      (node (ref R13) (pin 1))
      (node (ref SW4) (pin 3))
      (node (ref U8) (pin 2)))
    (net (code 13) (name /sheet5C8FA9BD/Carry)
      (node (ref U10) (pin 2))
      (node (ref R14) (pin 1))
      (node (ref SW5) (pin 3)))
    (net (code 14) (name /sheet5C8FAA11/Carry)
      (node (ref SW6) (pin 3))
      (node (ref R15) (pin 1))
      (node (ref U12) (pin 2)))
    (net (code 15) (name /sheet5C8FAB0D/Carry)
      (node (ref U18) (pin 2))
      (node (ref R18) (pin 1))
      (node (ref SW9) (pin 3)))
    (net (code 16) (name /sheet5C8FAB71/Carry)
      (node (ref SW10) (pin 3))
      (node (ref R19) (pin 1))
      (node (ref U20) (pin 2)))
    (net (code 17) (name /sheet5C8FABC5/Carry)
      (node (ref R20) (pin 1))
      (node (ref SW11) (pin 3))
      (node (ref U22) (pin 2)))
    (net (code 18) (name /sheet5C8FAC2D/Carry)
      (node (ref R21) (pin 1)))
    (net (code 19) (name "Net-(J1-Pad2)")
      (node (ref J1) (pin 2)))
    (net (code 20) (name 5V)
      (node (ref J1) (pin 1))
      (node (ref U3) (pin 1))
      (node (ref C5) (pin 1)))
    (net (code 21) (name "Net-(J1-Pad3)")
      (node (ref J1) (pin 3)))
    (net (code 22) (name "Net-(J1-Pad4)")
      (node (ref J1) (pin 4)))
    (net (code 23) (name "Net-(J1-PadS1)")
      (node (ref J1) (pin S1))
      (node (ref J1) (pin S2))
      (node (ref J1) (pin S3))
      (node (ref J1) (pin S4))
      (node (ref J1) (pin S5))
      (node (ref J1) (pin S6)))
    (net (code 24) (name /sheet5C8FAAB9/Carry)
      (node (ref R17) (pin 1))
      (node (ref U16) (pin 2))
      (node (ref SW8) (pin 3)))
    (net (code 25) (name "/Decade Counter/Carry")
      (node (ref U6) (pin 2))
      (node (ref R12) (pin 1))
      (node (ref SW3) (pin 3)))
    (net (code 26) (name "Net-(D1-Pad6)")
      (node (ref U5) (pin 12))
      (node (ref D1) (pin 6)))
    (net (code 27) (name "Net-(D1-Pad9)")
      (node (ref U5) (pin 6))
      (node (ref D1) (pin 9)))
    (net (code 28) (name "Net-(D1-Pad3)")
      (node (ref D1) (pin 3))
      (node (ref D1) (pin 8))
      (node (ref R2) (pin 1)))
    (net (code 29) (name "Net-(D1-Pad5)")
      (node (ref D1) (pin 5)))
    (net (code 30) (name "Net-(D1-Pad2)")
      (node (ref U5) (pin 9))
      (node (ref D1) (pin 2)))
    (net (code 31) (name "Net-(D1-Pad1)")
      (node (ref U5) (pin 11))
      (node (ref D1) (pin 1)))
    (net (code 32) (name "Net-(SW2-Pad1)")
      (node (ref U4) (pin 4))
      (node (ref SW2) (pin 1)))
    (net (code 33) (name "Net-(SW2-Pad2)")
      (node (ref SW2) (pin 2))
      (node (ref U5) (pin 1)))
    (net (code 34) (name "Net-(R12-Pad2)")
      (node (ref R12) (pin 2))
      (node (ref U5) (pin 5)))
    (net (code 35) (name "Net-(D1-Pad10)")
      (node (ref U5) (pin 7))
      (node (ref D1) (pin 10)))
    (net (code 36) (name "Net-(D1-Pad7)")
      (node (ref D1) (pin 7))
      (node (ref U5) (pin 10)))
    (net (code 37) (name "Net-(D1-Pad4)")
      (node (ref U5) (pin 13))
      (node (ref D1) (pin 4)))
    (net (code 38) (name "Net-(U5-Pad4)")
      (node (ref U5) (pin 4)))
    (net (code 39) (name "Net-(U5-Pad14)")
      (node (ref U5) (pin 14)))
    (net (code 40) (name "Net-(U4-Pad1)")
      (node (ref U4) (pin 1)))
    (net (code 41) (name "Net-(D2-Pad6)")
      (node (ref U7) (pin 12))
      (node (ref D2) (pin 6)))
    (net (code 42) (name "Net-(D2-Pad9)")
      (node (ref U7) (pin 6))
      (node (ref D2) (pin 9)))
    (net (code 43) (name "Net-(D2-Pad3)")
      (node (ref D2) (pin 8))
      (node (ref D2) (pin 3))
      (node (ref R3) (pin 1)))
    (net (code 44) (name "Net-(D2-Pad5)")
      (node (ref D2) (pin 5)))
    (net (code 45) (name "Net-(D2-Pad2)")
      (node (ref U7) (pin 9))
      (node (ref D2) (pin 2)))
    (net (code 46) (name "Net-(SW3-Pad1)")
      (node (ref U6) (pin 4))
      (node (ref SW3) (pin 1)))
    (net (code 47) (name "Net-(SW3-Pad2)")
      (node (ref U7) (pin 1))
      (node (ref SW3) (pin 2)))
    (net (code 48) (name "Net-(D2-Pad1)")
      (node (ref U7) (pin 11))
      (node (ref D2) (pin 1)))
    (net (code 49) (name "Net-(R13-Pad2)")
      (node (ref R13) (pin 2))
      (node (ref U7) (pin 5)))
    (net (code 50) (name "Net-(D2-Pad10)")
      (node (ref U7) (pin 7))
      (node (ref D2) (pin 10)))
    (net (code 51) (name "Net-(D2-Pad7)")
      (node (ref D2) (pin 7))
      (node (ref U7) (pin 10)))
    (net (code 52) (name "Net-(D2-Pad4)")
      (node (ref D2) (pin 4))
      (node (ref U7) (pin 13)))
    (net (code 53) (name "Net-(U7-Pad4)")
      (node (ref U7) (pin 4)))
    (net (code 54) (name "Net-(U7-Pad14)")
      (node (ref U7) (pin 14)))
    (net (code 55) (name "Net-(U6-Pad1)")
      (node (ref U6) (pin 1)))
    (net (code 56) (name "Net-(D3-Pad6)")
      (node (ref D3) (pin 6))
      (node (ref U9) (pin 12)))
    (net (code 57) (name "Net-(D3-Pad9)")
      (node (ref U9) (pin 6))
      (node (ref D3) (pin 9)))
    (net (code 58) (name "Net-(D3-Pad3)")
      (node (ref R4) (pin 1))
      (node (ref D3) (pin 8))
      (node (ref D3) (pin 3)))
    (net (code 59) (name "Net-(D3-Pad5)")
      (node (ref D3) (pin 5)))
    (net (code 60) (name "Net-(D3-Pad2)")
      (node (ref U9) (pin 9))
      (node (ref D3) (pin 2)))
    (net (code 61) (name "Net-(SW4-Pad1)")
      (node (ref U8) (pin 4))
      (node (ref SW4) (pin 1)))
    (net (code 62) (name "Net-(SW4-Pad2)")
      (node (ref SW4) (pin 2))
      (node (ref U9) (pin 1)))
    (net (code 63) (name "Net-(D3-Pad1)")
      (node (ref D3) (pin 1))
      (node (ref U9) (pin 11)))
    (net (code 64) (name "Net-(R14-Pad2)")
      (node (ref R14) (pin 2))
      (node (ref U9) (pin 5)))
    (net (code 65) (name "Net-(D3-Pad10)")
      (node (ref D3) (pin 10))
      (node (ref U9) (pin 7)))
    (net (code 66) (name "Net-(D3-Pad7)")
      (node (ref D3) (pin 7))
      (node (ref U9) (pin 10)))
    (net (code 67) (name "Net-(D3-Pad4)")
      (node (ref D3) (pin 4))
      (node (ref U9) (pin 13)))
    (net (code 68) (name "Net-(U9-Pad4)")
      (node (ref U9) (pin 4)))
    (net (code 69) (name "Net-(U9-Pad14)")
      (node (ref U9) (pin 14)))
    (net (code 70) (name "Net-(U8-Pad1)")
      (node (ref U8) (pin 1)))
    (net (code 71) (name "Net-(D4-Pad6)")
      (node (ref D4) (pin 6))
      (node (ref U11) (pin 12)))
    (net (code 72) (name "Net-(D4-Pad9)")
      (node (ref U11) (pin 6))
      (node (ref D4) (pin 9)))
    (net (code 73) (name "Net-(D4-Pad3)")
      (node (ref D4) (pin 8))
      (node (ref R5) (pin 1))
      (node (ref D4) (pin 3)))
    (net (code 74) (name "Net-(D4-Pad5)")
      (node (ref D4) (pin 5)))
    (net (code 75) (name "Net-(D4-Pad2)")
      (node (ref U11) (pin 9))
      (node (ref D4) (pin 2)))
    (net (code 76) (name "Net-(SW5-Pad1)")
      (node (ref SW5) (pin 1))
      (node (ref U10) (pin 4)))
    (net (code 77) (name "Net-(SW5-Pad2)")
      (node (ref SW5) (pin 2))
      (node (ref U11) (pin 1)))
    (net (code 78) (name "Net-(D4-Pad1)")
      (node (ref D4) (pin 1))
      (node (ref U11) (pin 11)))
    (net (code 79) (name "Net-(R15-Pad2)")
      (node (ref R15) (pin 2))
      (node (ref U11) (pin 5)))
    (net (code 80) (name "Net-(D4-Pad10)")
      (node (ref U11) (pin 7))
      (node (ref D4) (pin 10)))
    (net (code 81) (name "Net-(D4-Pad7)")
      (node (ref D4) (pin 7))
      (node (ref U11) (pin 10)))
    (net (code 82) (name "Net-(D4-Pad4)")
      (node (ref U11) (pin 13))
      (node (ref D4) (pin 4)))
    (net (code 83) (name "Net-(U11-Pad4)")
      (node (ref U11) (pin 4)))
    (net (code 84) (name "Net-(U11-Pad14)")
      (node (ref U11) (pin 14)))
    (net (code 85) (name "Net-(U10-Pad1)")
      (node (ref U10) (pin 1)))
    (net (code 86) (name "Net-(D5-Pad6)")
      (node (ref D5) (pin 6))
      (node (ref U13) (pin 12)))
    (net (code 87) (name "Net-(D5-Pad9)")
      (node (ref U13) (pin 6))
      (node (ref D5) (pin 9)))
    (net (code 88) (name "Net-(D5-Pad3)")
      (node (ref D5) (pin 3))
      (node (ref R6) (pin 1))
      (node (ref D5) (pin 8)))
    (net (code 89) (name "Net-(D5-Pad5)")
      (node (ref D5) (pin 5)))
    (net (code 90) (name "Net-(D5-Pad2)")
      (node (ref U13) (pin 9))
      (node (ref D5) (pin 2)))
    (net (code 91) (name "Net-(D5-Pad1)")
      (node (ref U13) (pin 11))
      (node (ref D5) (pin 1)))
    (net (code 92) (name "Net-(SW6-Pad1)")
      (node (ref U12) (pin 4))
      (node (ref SW6) (pin 1)))
    (net (code 93) (name "Net-(SW6-Pad2)")
      (node (ref U13) (pin 1))
      (node (ref SW6) (pin 2)))
    (net (code 94) (name "Net-(R16-Pad2)")
      (node (ref U13) (pin 5))
      (node (ref R16) (pin 2)))
    (net (code 95) (name "Net-(D5-Pad10)")
      (node (ref U13) (pin 7))
      (node (ref D5) (pin 10)))
    (net (code 96) (name "Net-(D5-Pad7)")
      (node (ref U13) (pin 10))
      (node (ref D5) (pin 7)))
    (net (code 97) (name "Net-(D5-Pad4)")
      (node (ref D5) (pin 4))
      (node (ref U13) (pin 13)))
    (net (code 98) (name "Net-(U13-Pad4)")
      (node (ref U13) (pin 4)))
    (net (code 99) (name "Net-(U13-Pad14)")
      (node (ref U13) (pin 14)))
    (net (code 100) (name "Net-(U12-Pad1)")
      (node (ref U12) (pin 1)))
    (net (code 101) (name "Net-(D6-Pad6)")
      (node (ref D6) (pin 6))
      (node (ref U15) (pin 12)))
    (net (code 102) (name "Net-(D6-Pad9)")
      (node (ref D6) (pin 9))
      (node (ref U15) (pin 6)))
    (net (code 103) (name "Net-(D6-Pad3)")
      (node (ref D6) (pin 3))
      (node (ref D6) (pin 8))
      (node (ref R7) (pin 1)))
    (net (code 104) (name "Net-(D6-Pad5)")
      (node (ref D6) (pin 5)))
    (net (code 105) (name "Net-(D6-Pad2)")
      (node (ref D6) (pin 2))
      (node (ref U15) (pin 9)))
    (net (code 106) (name "Net-(SW7-Pad1)")
      (node (ref SW7) (pin 1))
      (node (ref U14) (pin 4)))
    (net (code 107) (name "Net-(SW7-Pad2)")
      (node (ref SW7) (pin 2))
      (node (ref U15) (pin 1)))
    (net (code 108) (name "Net-(D6-Pad1)")
      (node (ref U15) (pin 11))
      (node (ref D6) (pin 1)))
    (net (code 109) (name "Net-(R17-Pad2)")
      (node (ref R17) (pin 2))
      (node (ref U15) (pin 5)))
    (net (code 110) (name "Net-(D6-Pad10)")
      (node (ref D6) (pin 10))
      (node (ref U15) (pin 7)))
    (net (code 111) (name "Net-(D6-Pad7)")
      (node (ref U15) (pin 10))
      (node (ref D6) (pin 7)))
    (net (code 112) (name "Net-(D6-Pad4)")
      (node (ref U15) (pin 13))
      (node (ref D6) (pin 4)))
    (net (code 113) (name "Net-(U15-Pad4)")
      (node (ref U15) (pin 4)))
    (net (code 114) (name "Net-(U15-Pad14)")
      (node (ref U15) (pin 14)))
    (net (code 115) (name "Net-(U14-Pad1)")
      (node (ref U14) (pin 1)))
    (net (code 116) (name "Net-(D7-Pad6)")
      (node (ref D7) (pin 6))
      (node (ref U17) (pin 12)))
    (net (code 117) (name "Net-(D7-Pad9)")
      (node (ref U17) (pin 6))
      (node (ref D7) (pin 9)))
    (net (code 118) (name "Net-(D7-Pad3)")
      (node (ref D7) (pin 3))
      (node (ref D7) (pin 8))
      (node (ref R8) (pin 1)))
    (net (code 119) (name "Net-(D7-Pad5)")
      (node (ref D7) (pin 5)))
    (net (code 120) (name "Net-(D7-Pad2)")
      (node (ref U17) (pin 9))
      (node (ref D7) (pin 2)))
    (net (code 121) (name "Net-(SW8-Pad1)")
      (node (ref U16) (pin 4))
      (node (ref SW8) (pin 1)))
    (net (code 122) (name "Net-(SW8-Pad2)")
      (node (ref U17) (pin 1))
      (node (ref SW8) (pin 2)))
    (net (code 123) (name "Net-(D7-Pad1)")
      (node (ref U17) (pin 11))
      (node (ref D7) (pin 1)))
    (net (code 124) (name "Net-(R18-Pad2)")
      (node (ref U17) (pin 5))
      (node (ref R18) (pin 2)))
    (net (code 125) (name "Net-(D7-Pad10)")
      (node (ref D7) (pin 10))
      (node (ref U17) (pin 7)))
    (net (code 126) (name "Net-(D7-Pad7)")
      (node (ref D7) (pin 7))
      (node (ref U17) (pin 10)))
    (net (code 127) (name "Net-(D7-Pad4)")
      (node (ref U17) (pin 13))
      (node (ref D7) (pin 4)))
    (net (code 128) (name "Net-(U17-Pad4)")
      (node (ref U17) (pin 4)))
    (net (code 129) (name "Net-(U17-Pad14)")
      (node (ref U17) (pin 14)))
    (net (code 130) (name "Net-(U16-Pad1)")
      (node (ref U16) (pin 1)))
    (net (code 131) (name "Net-(D8-Pad6)")
      (node (ref D8) (pin 6))
      (node (ref U19) (pin 12)))
    (net (code 132) (name "Net-(D8-Pad9)")
      (node (ref U19) (pin 6))
      (node (ref D8) (pin 9)))
    (net (code 133) (name "Net-(D8-Pad3)")
      (node (ref D8) (pin 3))
      (node (ref R9) (pin 1))
      (node (ref D8) (pin 8)))
    (net (code 134) (name "Net-(D8-Pad5)")
      (node (ref D8) (pin 5)))
    (net (code 135) (name "Net-(D8-Pad2)")
      (node (ref D8) (pin 2))
      (node (ref U19) (pin 9)))
    (net (code 136) (name "Net-(D8-Pad1)")
      (node (ref U19) (pin 11))
      (node (ref D8) (pin 1)))
    (net (code 137) (name "Net-(SW9-Pad1)")
      (node (ref U18) (pin 4))
      (node (ref SW9) (pin 1)))
    (net (code 138) (name "Net-(SW9-Pad2)")
      (node (ref SW9) (pin 2))
      (node (ref U19) (pin 1)))
    (net (code 139) (name "Net-(R19-Pad2)")
      (node (ref U19) (pin 5))
      (node (ref R19) (pin 2)))
    (net (code 140) (name "Net-(D8-Pad10)")
      (node (ref U19) (pin 7))
      (node (ref D8) (pin 10)))
    (net (code 141) (name "Net-(D8-Pad7)")
      (node (ref D8) (pin 7))
      (node (ref U19) (pin 10)))
    (net (code 142) (name "Net-(D8-Pad4)")
      (node (ref U19) (pin 13))
      (node (ref D8) (pin 4)))
    (net (code 143) (name "Net-(U19-Pad4)")
      (node (ref U19) (pin 4)))
    (net (code 144) (name "Net-(U19-Pad14)")
      (node (ref U19) (pin 14)))
    (net (code 145) (name "Net-(U18-Pad1)")
      (node (ref U18) (pin 1)))
    (net (code 146) (name "Net-(D9-Pad5)")
      (node (ref D9) (pin 5)))
    (net (code 147) (name "Net-(D9-Pad6)")
      (node (ref D9) (pin 6))
      (node (ref U21) (pin 12)))
    (net (code 148) (name "Net-(D9-Pad9)")
      (node (ref D9) (pin 9))
      (node (ref U21) (pin 6)))
    (net (code 149) (name "Net-(D9-Pad3)")
      (node (ref R10) (pin 1))
      (node (ref D9) (pin 8))
      (node (ref D9) (pin 3)))
    (net (code 150) (name "Net-(D9-Pad2)")
      (node (ref D9) (pin 2))
      (node (ref U21) (pin 9)))
    (net (code 151) (name "Net-(D9-Pad1)")
      (node (ref D9) (pin 1))
      (node (ref U21) (pin 11)))
    (net (code 152) (name "Net-(SW10-Pad1)")
      (node (ref U20) (pin 4))
      (node (ref SW10) (pin 1)))
    (net (code 153) (name "Net-(SW10-Pad2)")
      (node (ref U21) (pin 1))
      (node (ref SW10) (pin 2)))
    (net (code 154) (name "Net-(R20-Pad2)")
      (node (ref R20) (pin 2))
      (node (ref U21) (pin 5)))
    (net (code 155) (name "Net-(D9-Pad10)")
      (node (ref U21) (pin 7))
      (node (ref D9) (pin 10)))
    (net (code 156) (name "Net-(D9-Pad7)")
      (node (ref D9) (pin 7))
      (node (ref U21) (pin 10)))
    (net (code 157) (name "Net-(D9-Pad4)")
      (node (ref D9) (pin 4))
      (node (ref U21) (pin 13)))
    (net (code 158) (name "Net-(U21-Pad4)")
      (node (ref U21) (pin 4)))
    (net (code 159) (name "Net-(U21-Pad14)")
      (node (ref U21) (pin 14)))
    (net (code 160) (name "Net-(U20-Pad1)")
      (node (ref U20) (pin 1)))
    (net (code 161) (name "Net-(D10-Pad5)")
      (node (ref D10) (pin 5)))
    (net (code 162) (name "Net-(D10-Pad6)")
      (node (ref U23) (pin 12))
      (node (ref D10) (pin 6)))
    (net (code 163) (name "Net-(D10-Pad9)")
      (node (ref U23) (pin 6))
      (node (ref D10) (pin 9)))
    (net (code 164) (name "Net-(D10-Pad3)")
      (node (ref D10) (pin 3))
      (node (ref D10) (pin 8))
      (node (ref R11) (pin 1)))
    (net (code 165) (name "Net-(D10-Pad2)")
      (node (ref U23) (pin 9))
      (node (ref D10) (pin 2)))
    (net (code 166) (name "Net-(D10-Pad1)")
      (node (ref U23) (pin 11))
      (node (ref D10) (pin 1)))
    (net (code 167) (name "Net-(SW11-Pad1)")
      (node (ref SW11) (pin 1))
      (node (ref U22) (pin 4)))
    (net (code 168) (name "Net-(SW11-Pad2)")
      (node (ref SW11) (pin 2))
      (node (ref U23) (pin 1)))
    (net (code 169) (name "Net-(R21-Pad2)")
      (node (ref U23) (pin 5))
      (node (ref R21) (pin 2)))
    (net (code 170) (name "Net-(D10-Pad10)")
      (node (ref D10) (pin 10))
      (node (ref U23) (pin 7)))
    (net (code 171) (name "Net-(D10-Pad7)")
      (node (ref U23) (pin 10))
      (node (ref D10) (pin 7)))
    (net (code 172) (name "Net-(D10-Pad4)")
      (node (ref D10) (pin 4))
      (node (ref U23) (pin 13)))
    (net (code 173) (name "Net-(U23-Pad4)")
      (node (ref U23) (pin 4)))
    (net (code 174) (name "Net-(U23-Pad14)")
      (node (ref U23) (pin 14)))
    (net (code 175) (name "Net-(U22-Pad1)")
      (node (ref U22) (pin 1)))))